[
  {
    "CoteSecurite": "A",
    "Employeur": "Canada Computers",
    "DossierJudiciaire": "Aucun",
    "Preference": "Travailler en programmation web",
    "NiveauAnglais": "Moyen",
    "NiveauFrancais" : "Bon",
    "Automobile": "Oui"
  },
  {
    "CoteSecurite": "C",
    "Employeur": "Microplay",
    "DossierJudiciaire": "PIratage",
    "Preference": "Gérer des bases de données",
    "NiveauAnglais": "Bon",
    "NiveauFrancais" : "Bon",
    "Automobile": "Oui"
  },
  {
    "CoteSecurite": "B",
    "Employeur": "McDonalds",
    "DossierJudiciaire": "Aucun",
    "Preference": "Créer des applications windows",
    "NiveauAnglais": "Faible",
    "NiveauFrancais" : "Moyen",
    "Automobile": "Non"
  }
]